# Blender v2.67 (sub 0) OBJ File: ''
# www.blender.org
mtllib untitled.mtl
o Cube
v -0.408598 0.039706 0.607555
v -0.408598 0.039706 0.480867
v -0.281910 0.039706 0.480867
v -0.281910 0.039706 0.607555
v -0.408598 0.166393 0.607555
v -0.408598 0.166393 0.480867
v -0.281910 0.166393 0.480867
v -0.281910 0.166393 0.607555
v -0.067863 0.039496 -0.170134
v 0.020141 0.041410 -0.079022
v -0.069776 0.166166 -0.170947
v 0.018227 0.168080 -0.079834
v -0.162724 0.166803 0.119311
v -0.289411 0.166803 0.119311
v -0.162724 0.040116 0.119311
v -0.289411 0.040116 0.119311
v 0.566019 0.049915 -0.394606
v 0.576208 0.052567 -0.268357
v 0.563368 0.176551 -0.397051
v 0.573556 0.179203 -0.270802
v -0.266279 0.166516 0.383149
v -0.392967 0.166516 0.383149
v -0.266279 0.039829 0.383149
v -0.392967 0.039829 0.383149
v -0.367566 0.040608 0.281509
v -0.240879 0.040608 0.281509
v -0.367566 0.167296 0.281509
v -0.240879 0.167296 0.281509
v 0.418184 0.047936 -0.369367
v 0.477286 0.050289 -0.257334
v 0.415831 0.174594 -0.370785
v 0.474933 0.176947 -0.258753
v 0.266744 0.171277 -0.221544
v 0.178741 0.169363 -0.312656
v 0.268658 0.044607 -0.220732
v 0.180654 0.042693 -0.311844
usemtl None
s off
f 5 6 2 1
f 3 2 24 23
f 7 8 4 3
f 8 5 1 4
f 1 2 3 4
f 8 7 6 5
f 7 3 23 21
f 2 6 22 24
f 27 28 13 14
f 23 24 25 26
f 6 7 21 22
f 22 21 28 27
f 24 22 27 25
f 21 23 26 28
f 16 14 11 9
f 26 25 16 15
f 25 27 14 16
f 28 26 15 13
f 10 9 36 35
f 14 13 12 11
f 13 15 10 12
f 15 16 9 10
f 11 12 33 34
f 12 10 35 33
f 9 11 34 36
f 30 29 17 18
f 34 33 32 31
f 36 34 31 29
f 33 35 30 32
f 35 36 29 30
f 19 20 18 17
f 29 31 19 17
f 32 30 18 20
f 31 32 20 19
